C:\Users\david\TFG\subscription-app\subscriptionapp-backend-java\src\main\java\UBU\data\EjemplarDao.java
C:\Users\david\TFG\subscription-app\subscriptionapp-backend-java\src\main\java\UBU\data\SuministradorDaoImpl.java
C:\Users\david\TFG\subscription-app\subscriptionapp-backend-java\src\main\java\UBU\domain\Ejemplar.java
C:\Users\david\TFG\subscription-app\subscriptionapp-backend-java\src\main\java\UBU\data\SuscriptorDaoImpl.java
C:\Users\david\TFG\subscription-app\subscriptionapp-backend-java\src\main\java\UBU\domain\Plan.java
C:\Users\david\TFG\subscription-app\subscriptionapp-backend-java\src\main\java\UBU\web\CorsFilter.java
C:\Users\david\TFG\subscription-app\subscriptionapp-backend-java\src\main\java\UBU\data\EditorialDaoImpl.java
C:\Users\david\TFG\subscription-app\subscriptionapp-backend-java\src\main\java\UBU\domain\Editorial.java
C:\Users\david\TFG\subscription-app\subscriptionapp-backend-java\src\main\java\UBU\web\JAXRSActivator.java
C:\Users\david\TFG\subscription-app\subscriptionapp-backend-java\src\main\java\UBU\domain\Articulo.java
C:\Users\david\TFG\subscription-app\subscriptionapp-backend-java\src\main\java\UBU\servicio\EditorialServiceRS.java
C:\Users\david\TFG\subscription-app\subscriptionapp-backend-java\src\main\java\UBU\domain\Publicacion.java
C:\Users\david\TFG\subscription-app\subscriptionapp-backend-java\src\main\java\UBU\domain\Suscriptor.java
C:\Users\david\TFG\subscription-app\subscriptionapp-backend-java\src\main\java\UBU\data\PublicacionDaoImpl.java
C:\Users\david\TFG\subscription-app\subscriptionapp-backend-java\src\main\java\UBU\servicio\PublicacionServiceRS.java
C:\Users\david\TFG\subscription-app\subscriptionapp-backend-java\src\main\java\UBU\domain\Suscripcion.java
C:\Users\david\TFG\subscription-app\subscriptionapp-backend-java\src\main\java\UBU\domain\Suministrador.java
C:\Users\david\TFG\subscription-app\subscriptionapp-backend-java\src\main\java\UBU\domain\SuministradorEditorial.java
C:\Users\david\TFG\subscription-app\subscriptionapp-backend-java\src\main\java\UBU\data\SuministradorDao.java
C:\Users\david\TFG\subscription-app\subscriptionapp-backend-java\src\main\java\UBU\servicio\SuministradorServiceRS.java
C:\Users\david\TFG\subscription-app\subscriptionapp-backend-java\src\main\java\UBU\servicio\SuscriptorServiceRS.java
C:\Users\david\TFG\subscription-app\subscriptionapp-backend-java\src\main\java\UBU\data\PublicacionDao.java
C:\Users\david\TFG\subscription-app\subscriptionapp-backend-java\src\main\java\UBU\servicio\EjemplarServiceRS.java
C:\Users\david\TFG\subscription-app\subscriptionapp-backend-java\src\main\java\UBU\domain\Periodicidad.java
C:\Users\david\TFG\subscription-app\subscriptionapp-backend-java\src\main\java\UBU\data\EjemplarDaoImpl.java
C:\Users\david\TFG\subscription-app\subscriptionapp-backend-java\src\main\java\UBU\data\EditorialDao.java
C:\Users\david\TFG\subscription-app\subscriptionapp-backend-java\src\main\java\UBU\data\SuscriptorDao.java
